…
### calculate QRA

Forecasts are pooled by forecast horizon and geography, use last \<14
days of forecasts for optimising the weights.

``` r
res <- qra::qra(forecasts,
                data, pool = c("horizon", "geography"),
                min_date = max(forecasts$creation_date) - 13)
res
```

    ## $ensemble
    ## # A tibble: 3,192 × 10
    ##    value_type geography_scale intercepts creation_date geography value_date
    ##    <chr>      <chr>           <list>     <date>        <chr>     <date>    
    ##  1 cases      nation          <tibble>   2020-05-25    country   2020-05-26
    ##  2 cases      nation          <tibble>   2020-05-25    country   2020-05-27
    ##  3 cases      nation          <tibble>   2020-05-25    country   2020-05-28
    ##  4 cases      nation          <tibble>   2020-05-25    country   2020-05-29
    ##  5 cases      nation          <tibble>   2020-05-25    country   2020-05-30
    ##  6 cases      nation          <tibble>   2020-05-25    country   2020-05-31
    ##  7 cases      nation          <tibble>   2020-05-25    country   2020-06-01
    ##  8 cases      nation          <tibble>   2020-05-25    country   2020-06-02
    ##  9 cases      nation          <tibble>   2020-05-25    country   2020-06-03
    ## 10 cases      nation          <tibble>   2020-05-25    country   2020-06-04
    ## # ℹ 3,182 more rows
    ## # ℹ 4 more variables: horizon <int>, quantile <dbl>, value <dbl>, model <chr>
    ## 
    ## $weights
    ## # A tibble: 380 × 5
    ##    value_type geography_scale model   quantile weight
    ##    <chr>      <chr>           <chr>      <dbl>  <dbl>
    ##  1 cases      nation          model 1     0.05      0
    ##  2 cases      nation          model 1     0.1       0
    ##  3 cases      nation          model 1     0.15      0
    ##  4 cases      nation          model 1     0.2       0
    ##  5 cases      nation          model 1     0.25      0
    ##  6 cases      nation          model 1     0.3       0
    ##  7 cases      nation          model 1     0.35      0
    ##  8 cases      nation          model 1     0.4       0
    ##  9 cases      nation          model 1     0.45      0
    ## 10 cases      nation          model 1     0.5       0
    ## # ℹ 370 more rows
    ## 
    ## $intercepts
    ## # A tibble: 76 × 4
    ##    value_type geography_scale quantile intercept
    ##    <chr>      <chr>              <dbl>     <dbl>
    ##  1 cases      nation              0.05         0
    ##  2 cases      nation              0.1          0
    ##  3 cases      nation              0.15         0
    ##  4 cases      nation              0.2          0
    ##  5 cases      nation              0.25         0
    ##  6 cases      nation              0.3          0
    ##  7 cases      nation              0.35         0
    ##  8 cases      nation              0.4          0
    ##  9 cases      nation              0.45         0
    ## 10 cases      nation              0.5          0
    ## # ℹ 66 more rows
